[{
        "id": 1,
        "fecha": "2017-07-15",
        "rating": 2,
        "comentario": "varius integer ac leo pellentesque ultrices mattis odio donec vitae nisi nam",
        "usuario": "Bernadine"
    },
    {
        "id": 2,
        "fecha": "2017-07-15",
        "rating": 3,
        "comentario": "vel augue vestibulum ante ipsum primis in faucibus orci luctus et",
        "usuario": "Sherye"
    },
    {
        "id": 3,
        "fecha": "2017-07-15",
        "rating": 4,
        "comentario": "potenti cras in purus eu magna vulputate luctus cum sociis natoque penatibus et",
        "usuario": "Gottfried"
    },
    {
        "id": 4,
        "fecha": "2017-07-15",
        "rating": 3,
        "comentario": "ridiculus mus etiam vel augue vestibulum rutrum rutrum neque aenean auctor gravida sem",
        "usuario": "Venita"
    },
    {
        "id": 5,
        "fecha": "2017-07-18",
        "rating": 4,
        "comentario": "sed tristique in tempus sit amet sem fusce consequat nulla nisl nunc nisl duis bibendum felis sed interdum venenatis",
        "usuario": "Shawn"
    },
    {
        "id": 6,
        "fecha": "2017-07-16",
        "rating": 2,
        "comentario": "dapibus augue vel accumsan tellus nisi eu orci mauris lacinia sapien quis libero nullam sit amet turpis",
        "usuario": "Kikelia"
    },
    {
        "id": 7,
        "fecha": "2017-07-17",
        "rating": 4,
        "comentario": "pede justo lacinia eget tincidunt eget tempus vel pede morbi porttitor",
        "usuario": "Cori"
    },
    {
        "id": 8,
        "fecha": "2017-07-16",
        "rating": 4,
        "comentario": "commodo vulputate justo in blandit ultrices enim lorem ipsum dolor sit",
        "usuario": "Willi"
    },
    {
        "id": 9,
        "fecha": "2017-07-17",
        "rating": 5,
        "comentario": "aliquet at feugiat non pretium quis lectus suspendisse potenti in eleifend quam a odio in hac habitasse platea dictumst maecenas",
        "usuario": "Ciro"
    },
    {
        "id": 10,
        "fecha": "2017-07-16",
        "rating": 2,
        "comentario": "diam id ornare imperdiet sapien urna pretium nisl ut volutpat",
        "usuario": "Ailyn"
    },
    {
        "id": 11,
        "fecha": "2017-07-20",
        "rating": 2,
        "comentario": "nibh in quis justo maecenas rhoncus aliquam lacus morbi quis tortor id nulla ultrices aliquet maecenas leo odio condimentum",
        "usuario": "Hanny"
    },
    {
        "id": 12,
        "fecha": "2017-07-18",
        "rating": 3,
        "comentario": "enim sit amet nunc viverra dapibus nulla suscipit ligula in lacus curabitur",
        "usuario": "Saundra"
    },
    {
        "id": 13,
        "fecha": "2017-07-17",
        "rating": 4,
        "comentario": "maecenas ut massa quis augue luctus tincidunt nulla mollis molestie lorem quisque ut",
        "usuario": "Immanuel"
    },
    {
        "id": 14,
        "fecha": "2017-07-16",
        "rating": 4,
        "comentario": "ultrices mattis odio donec vitae nisi nam ultrices libero non mattis pulvinar nulla pede ullamcorper augue a suscipit nulla",
        "usuario": "Guillaume"
    },
    {
        "id": 15,
        "fecha": "2017-07-16",
        "rating": 5,
        "comentario": "aenean auctor gravida sem praesent id massa id nisl venenatis lacinia aenean",
        "usuario": "Jennette"
    },
    {
        "id": 16,
        "fecha": "2017-07-21",
        "rating": 2,
        "comentario": "in blandit ultrices enim lorem ipsum dolor sit amet consectetuer adipiscing elit proin interdum mauris non ligula pellentesque ultrices",
        "usuario": "Ev"
    },
    {
        "id": 17,
        "fecha": "2017-07-21",
        "rating": 3,
        "comentario": "dui vel sem sed sagittis nam congue risus semper porta volutpat",
        "usuario": "Nickie"
    },
    {
        "id": 18,
        "fecha": "2017-07-19",
        "rating": 4,
        "comentario": "nisl venenatis lacinia aenean sit amet justo morbi ut odio cras mi pede malesuada in imperdiet et commodo vulputate",
        "usuario": "Alli"
    },
    {
        "id": 19,
        "fecha": "2017-07-17",
        "rating": 2,
        "comentario": "phasellus sit amet erat nulla tempus vivamus in felis eu sapien cursus vestibulum proin eu",
        "usuario": "Tabatha"
    },
    {
        "id": 20,
        "fecha": "2017-07-16",
        "rating": 2,
        "comentario": "luctus tincidunt nulla mollis molestie lorem quisque ut erat curabitur gravida nisi at nibh in hac habitasse platea dictumst",
        "usuario": "Emelda"
    },
    {
        "id": 21,
        "fecha": "2017-07-16",
        "rating": 3,
        "comentario": "sed vel enim sit amet nunc viverra dapibus nulla suscipit ligula in lacus curabitur at ipsum ac tellus semper",
        "usuario": "Nicolle"
    },
    {
        "id": 22,
        "fecha": "2017-07-20",
        "rating": 2,
        "comentario": "sit amet diam in magna bibendum imperdiet nullam orci pede venenatis non sodales sed tincidunt",
        "usuario": "Tansy"
    },
    {
        "id": 23,
        "fecha": "2017-07-21",
        "rating": 2,
        "comentario": "vel enim sit amet nunc viverra dapibus nulla suscipit ligula in lacus curabitur at ipsum ac tellus semper interdum",
        "usuario": "Celia"
    },
    {
        "id": 24,
        "fecha": "2017-07-21",
        "rating": 3,
        "comentario": "montes nascetur ridiculus mus vivamus vestibulum sagittis sapien cum sociis natoque penatibus et magnis dis",
        "usuario": "Suzi"
    },
    {
        "id": 25,
        "fecha": "2017-07-15",
        "rating": 4,
        "comentario": "tempor turpis nec euismod scelerisque quam turpis adipiscing lorem vitae mattis nibh ligula",
        "usuario": "Rina"
    },
    {
        "id": 26,
        "fecha": "2017-07-19",
        "rating": 2,
        "comentario": "eu felis fusce posuere felis sed lacus morbi sem mauris laoreet",
        "usuario": "Woodie"
    },
    {
        "id": 27,
        "fecha": "2017-07-19",
        "rating": 3,
        "comentario": "enim lorem ipsum dolor sit amet consectetuer adipiscing elit proin interdum mauris non ligula",
        "usuario": "Shoshanna"
    },
    {
        "id": 28,
        "fecha": "2017-07-16",
        "rating": 3,
        "comentario": "quis turpis sed ante vivamus tortor duis mattis egestas metus aenean fermentum donec ut mauris eget massa tempor convallis nulla",
        "usuario": "Sherilyn"
    },
    {
        "id": 29,
        "fecha": "2017-07-19",
        "rating": 4,
        "comentario": "at dolor quis odio consequat varius integer ac leo pellentesque",
        "usuario": "Wally"
    },
    {
        "id": 30,
        "fecha": "2017-07-18",
        "rating": 5,
        "comentario": "erat volutpat in congue etiam justo etiam pretium iaculis justo in hac habitasse platea dictumst",
        "usuario": "Jules"
    }]